{
  "project_info": {
    "project_number": "397938701989",
    "project_id": "ulajf-31d15",
    "storage_bucket": "ulajf-31d15.appspot.com"
  },
  "client": [
    {
      "client_info": {
        "mobilesdk_app_id": "1:397938701989:android:e940e10c54418929723f4c",
        "android_client_info": {
          "package_name": "host.exp.exponent"
        }
      },
      "oauth_client": [
        {
          "client_id": "397938701989-s8je21qdfdfvur7ufmc5ii7704oqdbsl.apps.googleusercontent.com",
          "client_type": 1,
          "android_info": {
            "package_name": "host.exp.exponent",
            "certificate_hash": "9656170413cdbacea34748d89e07ce926d4fe6e8"
          }
        },
        {
          "client_id": "397938701989-j9kt7mrg21b09hdp21pcvl8mlbpcf0g8.apps.googleusercontent.com",
          "client_type": 3
        }
      ],
      "api_key": [
        {
          "current_key": "AIzaSyCQY3-ESYTrCnt9KKJF7S7zomSe0ks9-Mw"
        }
      ],
      "services": {
        "appinvite_service": {
          "other_platform_oauth_client": [
            {
              "client_id": "397938701989-j9kt7mrg21b09hdp21pcvl8mlbpcf0g8.apps.googleusercontent.com",
              "client_type": 3
            },
            {
              "client_id": "397938701989-qncg92tdseeaqum530s7jqce8uh6imkf.apps.googleusercontent.com",
              "client_type": 2,
              "ios_info": {
                "bundle_id": "host.exp.exponent"
              }
            }
          ]
        }
      }
    }
  ],
  "configuration_version": "1"
}